{
  "type": "service_account",
  "project_id": "firebass-7a161",
  "private_key_id": "e4e4974811cd0846629d98c57fcc6c9c3c347ca1",
  "private_key": "-----BEGIN PRIVATE KEY-----\nMIIEvgIBADANBgkqhkiG9w0BAQEFAASCBKgwggSkAgEAAoIBAQDKWFaIXBvWbpUa\nnbAzJauPEwBT1ZmW4DgmwjXns0zXVGNN+wyV0ZPpJz2DBXSfQgbnqVkK/PdBM0/Z\nKW3/NhjcGv6x3BosxkK690ZzlsYru/IvPyAdAgGzfdc7dUs7+gmWizp+4fjIUeBN\nM8QfIS53XlAh4530H/IjDldoIda6y7+o5XDTQ/FGY3cdWGc3OWQQsM/oBSL0cxY5\np7B6cnWcBjdxZ9ystFjnTBTplAsVCbzfIdqp6ENWXIGPzlj8H8v4SB+3cRNNaxtK\nMUQac1dPjCEoKJ8CWsQXprvvHi+qwUbDasN4L8h5TzxUF0sH4k9wnOeMmObFTnht\nxYs4UfKJAgMBAAECggEABKwrTGEPIgGh9xBA4T97kZVbXrQ6JJwnI8r8jm4LJlZM\nKED1upBxQVMvBhNmTOasDOWx2RF8HrDyBTZiFECCLLQBYWdPIe1OnW1oHrNyvlAL\n4MgtBEp3clcDtTtpSjhlCAlNR6CNe4e7faDmRJ9CKM7AXDX6v+hMcb+LKGwOnrfa\n/x77Mln0u4M04DOiUiSzLrbrlg57zGDskY1ZbW+4ri445QfWWhGSITezsoh5q9Pm\nvbgvC+xa+f6RHcQWW62xFvs+5/t5QVVSv9T9m7tcQcTUEU9CIGJ+IcBgttzrkfx0\nv5Q2oLUIAx6cGerhHQ0yWkMhbQt/KBbiYIbFL09bwQKBgQDtEJYYnE9cssvk2DD0\nMVNWho6ClZKKPju5ve4CVSHTHQUrJaN3Ax5sogYmzU+0/7WrMxm73pdzYPcWQJ73\nj+EUgix448UjnWIFgnvH2479BN7crTzgaAfHIftL4aG15zj5FQ39icvX4DWBWWLP\nNGx0ow4JC+V/+qB3c/gZgoS/SQKBgQDagdDNfaitcrjkr9lblwhxUK/2rLP1XtRZ\nYQiIWp3xBfd06398J7+hEr6TVp5WEwhRFgBAcEhke96lCq8Nj1Y/agqASJn8iLbL\n9WIkhURk7UQOuleoP+5g3qmamPoQ2/NBpM+5PJP8aeJ75liKeEuElNnA2WUnIZ7D\nm4kGtDVZQQKBgQC3yxYzemxlGBHQGHTLvbo46RVv1HrKRzmS5dezY0FYJbWuH/49\n9OMPogZW6vKTB3VXh8S5zPdqcpDeZbdZg+kjN1E3YI+k7w3h66n/5w9SxwXp3T3H\nVaBCGOx1hjcTinK3WkWAfebWNXQGFsDumFxFiW0GQnzp3euu8PA3BuPYUQKBgE6p\nVyry5styNl+VcrFHQPHSM1ahO7PErLt0dCbqQFupYzlDIkTm5lStM9BE6YFhHqha\nPEL2aQlLko5ltzkxdcIkgZ1HBbBk4zGvp+Iv27xdshd/O9lFEqLq5bHTCosRM5RZ\nKbKsvTWsRK2H8i3/OmiDUZTcbk7VCpuunXi9XUtBAoGBANxZ2fQ7YkTdPPjynOpJ\nYDuMihAjH1W4RdEI6vgLQvAuuJKMHIjPL/FuX9Kg3oAZZwP/0FtmO3572bqZgcsu\npH1bk5fogyzAvgxM35I9FpJpv17SU27LG105zsTDK0gvTVogOQBfGDmoi/0bCdsn\npXA28V9AN522ITNyXX3Qi/Z1\n-----END PRIVATE KEY-----\n",
  "client_email": "firebase-adminsdk-ueyga@firebass-7a161.iam.gserviceaccount.com",
  "client_id": "102370005021183134732",
  "auth_uri": "https://accounts.google.com/o/oauth2/auth",
  "token_uri": "https://oauth2.googleapis.com/token",
  "auth_provider_x509_cert_url": "https://www.googleapis.com/oauth2/v1/certs",
  "client_x509_cert_url": "https://www.googleapis.com/robot/v1/metadata/x509/firebase-adminsdk-ueyga%40firebass-7a161.iam.gserviceaccount.com",
  "universe_domain": "googleapis.com"
}
